<?xml version="1.0" encoding="UTF-8" standalone="no"?>
<!-- Created with Inkscape (http://www.inkscape.org/) -->

<svg
   xmlns:dc="http://purl.org/dc/elements/1.1/"
   xmlns:cc="http://creativecommons.org/ns#"
   xmlns:rdf="http://www.w3.org/1999/02/22-rdf-syntax-ns#"
   xmlns:svg="http://www.w3.org/2000/svg"
   xmlns="http://www.w3.org/2000/svg"
   xmlns:sodipodi="http://sodipodi.sourceforge.net/DTD/sodipodi-0.dtd"
   xmlns:inkscape="http://www.inkscape.org/namespaces/inkscape"
   width="364.52747"
   height="306.20526"
   id="svg2"
   version="1.1"
   inkscape:version="0.48.2 r9819"
   sodipodi:docname="kohonen_rectangular_lattice.svg">
  <defs
     id="defs4" />
  <sodipodi:namedview
     id="base"
     pagecolor="#ffffff"
     bordercolor="#666666"
     borderopacity="1.0"
     inkscape:pageopacity="0.0"
     inkscape:pageshadow="2"
     inkscape:zoom="1.979899"
     inkscape:cx="205.20555"
     inkscape:cy="152.8733"
     inkscape:document-units="px"
     inkscape:current-layer="layer1"
     showgrid="false"
     fit-margin-top="0"
     fit-margin-left="0"
     fit-margin-right="0"
     fit-margin-bottom="0"
     inkscape:window-width="1920"
     inkscape:window-height="1018"
     inkscape:window-x="-8"
     inkscape:window-y="-8"
     inkscape:window-maximized="1" />
  <metadata
     id="metadata7">
    <rdf:RDF>
      <cc:Work
         rdf:about="">
        <dc:format>image/svg+xml</dc:format>
        <dc:type
           rdf:resource="http://purl.org/dc/dcmitype/StillImage" />
        <dc:title />
      </cc:Work>
    </rdf:RDF>
  </metadata>
  <g
     inkscape:label="Capa 1"
     inkscape:groupmode="layer"
     id="layer1"
     transform="translate(-92.291428,-104.63392)">
    <path
       sodipodi:type="arc"
       style="fill:#000000"
       id="path2985"
       sodipodi:cx="125.25892"
       sodipodi:cy="116.96093"
       sodipodi:rx="4.0406103"
       sodipodi:ry="6.0609155"
       d="m 129.29953,116.96093 c 0,3.34735 -1.80904,6.06092 -4.04061,6.06092 -2.23157,0 -4.04061,-2.71357 -4.04061,-6.06092 0,-3.34735 1.80904,-6.06092 4.04061,-6.06092 2.23157,0 4.04061,2.71357 4.04061,6.06092 z"
       transform="matrix(1.6080509,0,0,0.95833335,-86.838874,13.712202)" />
    <path
       style="fill:none;stroke:#000000;stroke-width:0.99805015px;stroke-linecap:butt;stroke-linejoin:miter;stroke-opacity:1"
       d="m 115.47746,126.05033 329.17172,0 0,264.648 -324.63489,0 -6.04911,0 0,-265.65618"
       id="path2987"
       inkscape:connector-curvature="0" />
    <path
       sodipodi:type="arc"
       style="fill:#000000"
       id="path2985-1"
       sodipodi:cx="125.25892"
       sodipodi:cy="116.96093"
       sodipodi:rx="4.0406103"
       sodipodi:ry="6.0609155"
       d="m 129.29953,116.96093 c 0,3.34735 -1.80904,6.06092 -4.04061,6.06092 -2.23157,0 -4.04061,-2.71357 -4.04061,-6.06092 0,-3.34735 1.80904,-6.06092 4.04061,-6.06092 2.23157,0 4.04061,2.71357 4.04061,6.06092 z"
       transform="matrix(1.6080509,0,0,0.95833335,-36.767855,12.954586)" />
    <path
       sodipodi:type="arc"
       style="fill:#000000"
       id="path2985-7"
       sodipodi:cx="125.25892"
       sodipodi:cy="116.96093"
       sodipodi:rx="4.0406103"
       sodipodi:ry="6.0609155"
       d="m 129.29953,116.96093 c 0,3.34735 -1.80904,6.06092 -4.04061,6.06092 -2.23157,0 -4.04061,-2.71357 -4.04061,-6.06092 0,-3.34735 1.80904,-6.06092 4.04061,-6.06092 2.23157,0 4.04061,2.71357 4.04061,6.06092 z"
       transform="matrix(1.6080509,0,0,0.95833335,12.224547,13.459662)" />
    <path
       sodipodi:type="arc"
       style="fill:#000000"
       id="path2985-4"
       sodipodi:cx="125.25892"
       sodipodi:cy="116.96093"
       sodipodi:rx="4.0406103"
       sodipodi:ry="6.0609155"
       d="m 129.29953,116.96093 c 0,3.34735 -1.80904,6.06092 -4.04061,6.06092 -2.23157,0 -4.04061,-2.71357 -4.04061,-6.06092 0,-3.34735 1.80904,-6.06092 4.04061,-6.06092 2.23157,0 4.04061,2.71357 4.04061,6.06092 z"
       transform="matrix(1.6080509,0,0,0.95833335,58.691564,13.459662)" />
    <path
       sodipodi:type="arc"
       style="fill:#000000"
       id="path2985-0"
       sodipodi:cx="125.25892"
       sodipodi:cy="116.96093"
       sodipodi:rx="4.0406103"
       sodipodi:ry="6.0609155"
       d="m 129.29953,116.96093 c 0,3.34735 -1.80904,6.06092 -4.04061,6.06092 -2.23157,0 -4.04061,-2.71357 -4.04061,-6.06092 0,-3.34735 1.80904,-6.06092 4.04061,-6.06092 2.23157,0 4.04061,2.71357 4.04061,6.06092 z"
       transform="matrix(1.6080509,0,0,0.95833335,105.15858,13.459662)" />
    <path
       sodipodi:type="arc"
       style="fill:#000000"
       id="path2985-9"
       sodipodi:cx="125.25892"
       sodipodi:cy="116.96093"
       sodipodi:rx="4.0406103"
       sodipodi:ry="6.0609155"
       d="m 129.29953,116.96093 c 0,3.34735 -1.80904,6.06092 -4.04061,6.06092 -2.23157,0 -4.04061,-2.71357 -4.04061,-6.06092 0,-3.34735 1.80904,-6.06092 4.04061,-6.06092 2.23157,0 4.04061,2.71357 4.04061,6.06092 z"
       transform="matrix(1.6080509,0,0,0.95833335,151.12052,13.964738)" />
    <path
       sodipodi:type="arc"
       style="fill:#000000"
       id="path2985-48"
       sodipodi:cx="125.25892"
       sodipodi:cy="116.96093"
       sodipodi:rx="4.0406103"
       sodipodi:ry="6.0609155"
       d="m 129.29953,116.96093 c 0,3.34735 -1.80904,6.06092 -4.04061,6.06092 -2.23157,0 -4.04061,-2.71357 -4.04061,-6.06092 0,-3.34735 1.80904,-6.06092 4.04061,-6.06092 2.23157,0 4.04061,2.71357 4.04061,6.06092 z"
       transform="matrix(1.6080509,0,0,0.95833335,196.57738,13.964738)" />
    <path
       sodipodi:type="arc"
       style="fill:#000000"
       id="path2985-8"
       sodipodi:cx="125.25892"
       sodipodi:cy="116.96093"
       sodipodi:rx="4.0406103"
       sodipodi:ry="6.0609155"
       d="m 129.29953,116.96093 c 0,3.34735 -1.80904,6.06092 -4.04061,6.06092 -2.23157,0 -4.04061,-2.71357 -4.04061,-6.06092 0,-3.34735 1.80904,-6.06092 4.04061,-6.06092 2.23157,0 4.04061,2.71357 4.04061,6.06092 z"
       transform="matrix(1.6080509,0,0,0.95833335,242.03425,13.964739)" />
    <path
       sodipodi:type="arc"
       style="fill:#000000"
       id="path2985-2"
       sodipodi:cx="125.25892"
       sodipodi:cy="116.96093"
       sodipodi:rx="4.0406103"
       sodipodi:ry="6.0609155"
       d="m 129.29953,116.96093 c 0,3.34735 -1.80904,6.06092 -4.04061,6.06092 -2.23157,0 -4.04061,-2.71357 -4.04061,-6.06092 0,-3.34735 1.80904,-6.06092 4.04061,-6.06092 2.23157,0 4.04061,2.71357 4.04061,6.06092 z"
       transform="matrix(1.6080509,0,0,0.95833335,-87.057174,62.745205)" />
    <path
       sodipodi:type="arc"
       style="fill:#000000"
       id="path2985-1-4"
       sodipodi:cx="125.25892"
       sodipodi:cy="116.96093"
       sodipodi:rx="4.0406103"
       sodipodi:ry="6.0609155"
       d="m 129.29953,116.96093 c 0,3.34735 -1.80904,6.06092 -4.04061,6.06092 -2.23157,0 -4.04061,-2.71357 -4.04061,-6.06092 0,-3.34735 1.80904,-6.06092 4.04061,-6.06092 2.23157,0 4.04061,2.71357 4.04061,6.06092 z"
       transform="matrix(1.6080509,0,0,0.95833335,-36.986154,61.987595)" />
    <path
       sodipodi:type="arc"
       style="fill:#000000"
       id="path2985-7-5"
       sodipodi:cx="125.25892"
       sodipodi:cy="116.96093"
       sodipodi:rx="4.0406103"
       sodipodi:ry="6.0609155"
       d="m 129.29953,116.96093 c 0,3.34735 -1.80904,6.06092 -4.04061,6.06092 -2.23157,0 -4.04061,-2.71357 -4.04061,-6.06092 0,-3.34735 1.80904,-6.06092 4.04061,-6.06092 2.23157,0 4.04061,2.71357 4.04061,6.06092 z"
       transform="matrix(1.6080509,0,0,0.95833335,12.006246,62.492665)" />
    <path
       sodipodi:type="arc"
       style="fill:#000000"
       id="path2985-4-5"
       sodipodi:cx="125.25892"
       sodipodi:cy="116.96093"
       sodipodi:rx="4.0406103"
       sodipodi:ry="6.0609155"
       d="m 129.29953,116.96093 c 0,3.34735 -1.80904,6.06092 -4.04061,6.06092 -2.23157,0 -4.04061,-2.71357 -4.04061,-6.06092 0,-3.34735 1.80904,-6.06092 4.04061,-6.06092 2.23157,0 4.04061,2.71357 4.04061,6.06092 z"
       transform="matrix(1.6080509,0,0,0.95833335,58.473266,62.492665)" />
    <path
       sodipodi:type="arc"
       style="fill:#000000"
       id="path2985-0-1"
       sodipodi:cx="125.25892"
       sodipodi:cy="116.96093"
       sodipodi:rx="4.0406103"
       sodipodi:ry="6.0609155"
       d="m 129.29953,116.96093 c 0,3.34735 -1.80904,6.06092 -4.04061,6.06092 -2.23157,0 -4.04061,-2.71357 -4.04061,-6.06092 0,-3.34735 1.80904,-6.06092 4.04061,-6.06092 2.23157,0 4.04061,2.71357 4.04061,6.06092 z"
       transform="matrix(1.6080509,0,0,0.95833335,104.94028,62.492665)" />
    <path
       sodipodi:type="arc"
       style="fill:#000000"
       id="path2985-9-7"
       sodipodi:cx="125.25892"
       sodipodi:cy="116.96093"
       sodipodi:rx="4.0406103"
       sodipodi:ry="6.0609155"
       d="m 129.29953,116.96093 c 0,3.34735 -1.80904,6.06092 -4.04061,6.06092 -2.23157,0 -4.04061,-2.71357 -4.04061,-6.06092 0,-3.34735 1.80904,-6.06092 4.04061,-6.06092 2.23157,0 4.04061,2.71357 4.04061,6.06092 z"
       transform="matrix(1.6080509,0,0,0.95833335,150.90222,62.997745)" />
    <path
       sodipodi:type="arc"
       style="fill:#000000"
       id="path2985-48-1"
       sodipodi:cx="125.25892"
       sodipodi:cy="116.96093"
       sodipodi:rx="4.0406103"
       sodipodi:ry="6.0609155"
       d="m 129.29953,116.96093 c 0,3.34735 -1.80904,6.06092 -4.04061,6.06092 -2.23157,0 -4.04061,-2.71357 -4.04061,-6.06092 0,-3.34735 1.80904,-6.06092 4.04061,-6.06092 2.23157,0 4.04061,2.71357 4.04061,6.06092 z"
       transform="matrix(1.6080509,0,0,0.95833335,196.35908,62.997745)" />
    <path
       sodipodi:type="arc"
       style="fill:#000000"
       id="path2985-8-1"
       sodipodi:cx="125.25892"
       sodipodi:cy="116.96093"
       sodipodi:rx="4.0406103"
       sodipodi:ry="6.0609155"
       d="m 129.29953,116.96093 c 0,3.34735 -1.80904,6.06092 -4.04061,6.06092 -2.23157,0 -4.04061,-2.71357 -4.04061,-6.06092 0,-3.34735 1.80904,-6.06092 4.04061,-6.06092 2.23157,0 4.04061,2.71357 4.04061,6.06092 z"
       transform="matrix(1.6080509,0,0,0.95833335,241.81595,62.997745)" />
    <path
       sodipodi:type="arc"
       style="fill:#000000"
       id="path2985-5"
       sodipodi:cx="125.25892"
       sodipodi:cy="116.96093"
       sodipodi:rx="4.0406103"
       sodipodi:ry="6.0609155"
       d="m 129.29953,116.96093 c 0,3.34735 -1.80904,6.06092 -4.04061,6.06092 -2.23157,0 -4.04061,-2.71357 -4.04061,-6.06092 0,-3.34735 1.80904,-6.06092 4.04061,-6.06092 2.23157,0 4.04061,2.71357 4.04061,6.06092 z"
       transform="matrix(1.6080509,0,0,0.95833335,-86.552098,116.70715)" />
    <path
       sodipodi:type="arc"
       style="fill:#000000"
       id="path2985-1-2"
       sodipodi:cx="125.25892"
       sodipodi:cy="116.96093"
       sodipodi:rx="4.0406103"
       sodipodi:ry="6.0609155"
       d="m 129.29953,116.96093 c 0,3.34735 -1.80904,6.06092 -4.04061,6.06092 -2.23157,0 -4.04061,-2.71357 -4.04061,-6.06092 0,-3.34735 1.80904,-6.06092 4.04061,-6.06092 2.23157,0 4.04061,2.71357 4.04061,6.06092 z"
       transform="matrix(1.6080509,0,0,0.95833335,-36.481078,115.94954)" />
    <path
       sodipodi:type="arc"
       style="fill:#000000"
       id="path2985-7-7"
       sodipodi:cx="125.25892"
       sodipodi:cy="116.96093"
       sodipodi:rx="4.0406103"
       sodipodi:ry="6.0609155"
       d="m 129.29953,116.96093 c 0,3.34735 -1.80904,6.06092 -4.04061,6.06092 -2.23157,0 -4.04061,-2.71357 -4.04061,-6.06092 0,-3.34735 1.80904,-6.06092 4.04061,-6.06092 2.23157,0 4.04061,2.71357 4.04061,6.06092 z"
       transform="matrix(1.6080509,0,0,0.95833335,12.511323,116.45461)" />
    <path
       sodipodi:type="arc"
       style="fill:#000000"
       id="path2985-4-6"
       sodipodi:cx="125.25892"
       sodipodi:cy="116.96093"
       sodipodi:rx="4.0406103"
       sodipodi:ry="6.0609155"
       d="m 129.29953,116.96093 c 0,3.34735 -1.80904,6.06092 -4.04061,6.06092 -2.23157,0 -4.04061,-2.71357 -4.04061,-6.06092 0,-3.34735 1.80904,-6.06092 4.04061,-6.06092 2.23157,0 4.04061,2.71357 4.04061,6.06092 z"
       transform="matrix(1.6080509,0,0,0.95833335,58.97834,116.45461)" />
    <path
       sodipodi:type="arc"
       style="fill:#000000"
       id="path2985-0-14"
       sodipodi:cx="125.25892"
       sodipodi:cy="116.96093"
       sodipodi:rx="4.0406103"
       sodipodi:ry="6.0609155"
       d="m 129.29953,116.96093 c 0,3.34735 -1.80904,6.06092 -4.04061,6.06092 -2.23157,0 -4.04061,-2.71357 -4.04061,-6.06092 0,-3.34735 1.80904,-6.06092 4.04061,-6.06092 2.23157,0 4.04061,2.71357 4.04061,6.06092 z"
       transform="matrix(1.6080509,0,0,0.95833335,105.44535,116.45461)" />
    <path
       sodipodi:type="arc"
       style="fill:#000000"
       id="path2985-9-2"
       sodipodi:cx="125.25892"
       sodipodi:cy="116.96093"
       sodipodi:rx="4.0406103"
       sodipodi:ry="6.0609155"
       d="m 129.29953,116.96093 c 0,3.34735 -1.80904,6.06092 -4.04061,6.06092 -2.23157,0 -4.04061,-2.71357 -4.04061,-6.06092 0,-3.34735 1.80904,-6.06092 4.04061,-6.06092 2.23157,0 4.04061,2.71357 4.04061,6.06092 z"
       transform="matrix(1.6080509,0,0,0.95833335,151.40729,116.95969)" />
    <path
       sodipodi:type="arc"
       style="fill:#000000"
       id="path2985-48-3"
       sodipodi:cx="125.25892"
       sodipodi:cy="116.96093"
       sodipodi:rx="4.0406103"
       sodipodi:ry="6.0609155"
       d="m 129.29953,116.96093 c 0,3.34735 -1.80904,6.06092 -4.04061,6.06092 -2.23157,0 -4.04061,-2.71357 -4.04061,-6.06092 0,-3.34735 1.80904,-6.06092 4.04061,-6.06092 2.23157,0 4.04061,2.71357 4.04061,6.06092 z"
       transform="matrix(1.6080509,0,0,0.95833335,196.86415,116.95969)" />
    <path
       sodipodi:type="arc"
       style="fill:#000000"
       id="path2985-8-2"
       sodipodi:cx="125.25892"
       sodipodi:cy="116.96093"
       sodipodi:rx="4.0406103"
       sodipodi:ry="6.0609155"
       d="m 129.29953,116.96093 c 0,3.34735 -1.80904,6.06092 -4.04061,6.06092 -2.23157,0 -4.04061,-2.71357 -4.04061,-6.06092 0,-3.34735 1.80904,-6.06092 4.04061,-6.06092 2.23157,0 4.04061,2.71357 4.04061,6.06092 z"
       transform="matrix(1.6080509,0,0,0.95833335,242.32102,116.95969)" />
    <path
       sodipodi:type="arc"
       style="fill:#000000"
       id="path2985-21"
       sodipodi:cx="125.25892"
       sodipodi:cy="116.96093"
       sodipodi:rx="4.0406103"
       sodipodi:ry="6.0609155"
       d="m 129.29953,116.96093 c 0,3.34735 -1.80904,6.06092 -4.04061,6.06092 -2.23157,0 -4.04061,-2.71357 -4.04061,-6.06092 0,-3.34735 1.80904,-6.06092 4.04061,-6.06092 2.23157,0 4.04061,2.71357 4.04061,6.06092 z"
       transform="matrix(1.6080509,0,0,0.95833335,-87.057172,171.21478)" />
    <path
       sodipodi:type="arc"
       style="fill:#000000"
       id="path2985-1-6"
       sodipodi:cx="125.25892"
       sodipodi:cy="116.96093"
       sodipodi:rx="4.0406103"
       sodipodi:ry="6.0609155"
       d="m 129.29953,116.96093 c 0,3.34735 -1.80904,6.06092 -4.04061,6.06092 -2.23157,0 -4.04061,-2.71357 -4.04061,-6.06092 0,-3.34735 1.80904,-6.06092 4.04061,-6.06092 2.23157,0 4.04061,2.71357 4.04061,6.06092 z"
       transform="matrix(1.6080509,0,0,0.95833335,-36.986152,170.45717)" />
    <path
       sodipodi:type="arc"
       style="fill:#000000"
       id="path2985-7-8"
       sodipodi:cx="125.25892"
       sodipodi:cy="116.96093"
       sodipodi:rx="4.0406103"
       sodipodi:ry="6.0609155"
       d="m 129.29953,116.96093 c 0,3.34735 -1.80904,6.06092 -4.04061,6.06092 -2.23157,0 -4.04061,-2.71357 -4.04061,-6.06092 0,-3.34735 1.80904,-6.06092 4.04061,-6.06092 2.23157,0 4.04061,2.71357 4.04061,6.06092 z"
       transform="matrix(1.6080509,0,0,0.95833335,12.006248,170.96224)" />
    <path
       sodipodi:type="arc"
       style="fill:#000000"
       id="path2985-4-57"
       sodipodi:cx="125.25892"
       sodipodi:cy="116.96093"
       sodipodi:rx="4.0406103"
       sodipodi:ry="6.0609155"
       d="m 129.29953,116.96093 c 0,3.34735 -1.80904,6.06092 -4.04061,6.06092 -2.23157,0 -4.04061,-2.71357 -4.04061,-6.06092 0,-3.34735 1.80904,-6.06092 4.04061,-6.06092 2.23157,0 4.04061,2.71357 4.04061,6.06092 z"
       transform="matrix(1.6080509,0,0,0.95833335,58.473264,170.96224)" />
    <path
       sodipodi:type="arc"
       style="fill:#000000"
       id="path2985-0-6"
       sodipodi:cx="125.25892"
       sodipodi:cy="116.96093"
       sodipodi:rx="4.0406103"
       sodipodi:ry="6.0609155"
       d="m 129.29953,116.96093 c 0,3.34735 -1.80904,6.06092 -4.04061,6.06092 -2.23157,0 -4.04061,-2.71357 -4.04061,-6.06092 0,-3.34735 1.80904,-6.06092 4.04061,-6.06092 2.23157,0 4.04061,2.71357 4.04061,6.06092 z"
       transform="matrix(1.6080509,0,0,0.95833335,104.94028,170.96224)" />
    <path
       sodipodi:type="arc"
       style="fill:#000000"
       id="path2985-9-1"
       sodipodi:cx="125.25892"
       sodipodi:cy="116.96093"
       sodipodi:rx="4.0406103"
       sodipodi:ry="6.0609155"
       d="m 129.29953,116.96093 c 0,3.34735 -1.80904,6.06092 -4.04061,6.06092 -2.23157,0 -4.04061,-2.71357 -4.04061,-6.06092 0,-3.34735 1.80904,-6.06092 4.04061,-6.06092 2.23157,0 4.04061,2.71357 4.04061,6.06092 z"
       transform="matrix(1.6080509,0,0,0.95833335,150.90222,171.46732)" />
    <path
       sodipodi:type="arc"
       style="fill:#000000"
       id="path2985-48-8"
       sodipodi:cx="125.25892"
       sodipodi:cy="116.96093"
       sodipodi:rx="4.0406103"
       sodipodi:ry="6.0609155"
       d="m 129.29953,116.96093 c 0,3.34735 -1.80904,6.06092 -4.04061,6.06092 -2.23157,0 -4.04061,-2.71357 -4.04061,-6.06092 0,-3.34735 1.80904,-6.06092 4.04061,-6.06092 2.23157,0 4.04061,2.71357 4.04061,6.06092 z"
       transform="matrix(1.6080509,0,0,0.95833335,196.35908,171.46732)" />
    <path
       sodipodi:type="arc"
       style="fill:#000000"
       id="path2985-8-9"
       sodipodi:cx="125.25892"
       sodipodi:cy="116.96093"
       sodipodi:rx="4.0406103"
       sodipodi:ry="6.0609155"
       d="m 129.29953,116.96093 c 0,3.34735 -1.80904,6.06092 -4.04061,6.06092 -2.23157,0 -4.04061,-2.71357 -4.04061,-6.06092 0,-3.34735 1.80904,-6.06092 4.04061,-6.06092 2.23157,0 4.04061,2.71357 4.04061,6.06092 z"
       transform="matrix(1.6080509,0,0,0.95833335,241.81595,171.46732)" />
    <path
       sodipodi:type="arc"
       style="fill:#000000"
       id="path2985-27"
       sodipodi:cx="125.25892"
       sodipodi:cy="116.96093"
       sodipodi:rx="4.0406103"
       sodipodi:ry="6.0609155"
       d="m 129.29953,116.96093 c 0,3.34735 -1.80904,6.06092 -4.04061,6.06092 -2.23157,0 -4.04061,-2.71357 -4.04061,-6.06092 0,-3.34735 1.80904,-6.06092 4.04061,-6.06092 2.23157,0 4.04061,2.71357 4.04061,6.06092 z"
       transform="matrix(1.6080509,0,0,0.95833335,-85.541945,227.23763)" />
    <path
       sodipodi:type="arc"
       style="fill:#000000"
       id="path2985-1-9"
       sodipodi:cx="125.25892"
       sodipodi:cy="116.96093"
       sodipodi:rx="4.0406103"
       sodipodi:ry="6.0609155"
       d="m 129.29953,116.96093 c 0,3.34735 -1.80904,6.06092 -4.04061,6.06092 -2.23157,0 -4.04061,-2.71357 -4.04061,-6.06092 0,-3.34735 1.80904,-6.06092 4.04061,-6.06092 2.23157,0 4.04061,2.71357 4.04061,6.06092 z"
       transform="matrix(1.6080509,0,0,0.95833335,-35.470925,226.48002)" />
    <path
       sodipodi:type="arc"
       style="fill:#000000"
       id="path2985-7-54"
       sodipodi:cx="125.25892"
       sodipodi:cy="116.96093"
       sodipodi:rx="4.0406103"
       sodipodi:ry="6.0609155"
       d="m 129.29953,116.96093 c 0,3.34735 -1.80904,6.06092 -4.04061,6.06092 -2.23157,0 -4.04061,-2.71357 -4.04061,-6.06092 0,-3.34735 1.80904,-6.06092 4.04061,-6.06092 2.23157,0 4.04061,2.71357 4.04061,6.06092 z"
       transform="matrix(1.6080509,0,0,0.95833335,13.521476,226.98509)" />
    <path
       sodipodi:type="arc"
       style="fill:#000000"
       id="path2985-4-3"
       sodipodi:cx="125.25892"
       sodipodi:cy="116.96093"
       sodipodi:rx="4.0406103"
       sodipodi:ry="6.0609155"
       d="m 129.29953,116.96093 c 0,3.34735 -1.80904,6.06092 -4.04061,6.06092 -2.23157,0 -4.04061,-2.71357 -4.04061,-6.06092 0,-3.34735 1.80904,-6.06092 4.04061,-6.06092 2.23157,0 4.04061,2.71357 4.04061,6.06092 z"
       transform="matrix(1.6080509,0,0,0.95833335,59.988493,226.98509)" />
    <path
       sodipodi:type="arc"
       style="fill:#000000"
       id="path2985-0-12"
       sodipodi:cx="125.25892"
       sodipodi:cy="116.96093"
       sodipodi:rx="4.0406103"
       sodipodi:ry="6.0609155"
       d="m 129.29953,116.96093 c 0,3.34735 -1.80904,6.06092 -4.04061,6.06092 -2.23157,0 -4.04061,-2.71357 -4.04061,-6.06092 0,-3.34735 1.80904,-6.06092 4.04061,-6.06092 2.23157,0 4.04061,2.71357 4.04061,6.06092 z"
       transform="matrix(1.6080509,0,0,0.95833335,106.45551,226.98509)" />
    <path
       sodipodi:type="arc"
       style="fill:#000000"
       id="path2985-9-3"
       sodipodi:cx="125.25892"
       sodipodi:cy="116.96093"
       sodipodi:rx="4.0406103"
       sodipodi:ry="6.0609155"
       d="m 129.29953,116.96093 c 0,3.34735 -1.80904,6.06092 -4.04061,6.06092 -2.23157,0 -4.04061,-2.71357 -4.04061,-6.06092 0,-3.34735 1.80904,-6.06092 4.04061,-6.06092 2.23157,0 4.04061,2.71357 4.04061,6.06092 z"
       transform="matrix(1.6080509,0,0,0.95833335,152.41745,227.49017)" />
    <path
       sodipodi:type="arc"
       style="fill:#000000"
       id="path2985-48-34"
       sodipodi:cx="125.25892"
       sodipodi:cy="116.96093"
       sodipodi:rx="4.0406103"
       sodipodi:ry="6.0609155"
       d="m 129.29953,116.96093 c 0,3.34735 -1.80904,6.06092 -4.04061,6.06092 -2.23157,0 -4.04061,-2.71357 -4.04061,-6.06092 0,-3.34735 1.80904,-6.06092 4.04061,-6.06092 2.23157,0 4.04061,2.71357 4.04061,6.06092 z"
       transform="matrix(1.6080509,0,0,0.95833335,197.87431,227.49017)" />
    <path
       sodipodi:type="arc"
       style="fill:#000000"
       id="path2985-8-11"
       sodipodi:cx="125.25892"
       sodipodi:cy="116.96093"
       sodipodi:rx="4.0406103"
       sodipodi:ry="6.0609155"
       d="m 129.29953,116.96093 c 0,3.34735 -1.80904,6.06092 -4.04061,6.06092 -2.23157,0 -4.04061,-2.71357 -4.04061,-6.06092 0,-3.34735 1.80904,-6.06092 4.04061,-6.06092 2.23157,0 4.04061,2.71357 4.04061,6.06092 z"
       transform="matrix(1.6080509,0,0,0.95833335,243.33117,227.49017)" />
    <path
       sodipodi:type="arc"
       style="fill:#000000"
       id="path2985-3"
       sodipodi:cx="125.25892"
       sodipodi:cy="116.96093"
       sodipodi:rx="4.0406103"
       sodipodi:ry="6.0609155"
       d="m 129.29953,116.96093 c 0,3.34735 -1.80904,6.06092 -4.04061,6.06092 -2.23157,0 -4.04061,-2.71357 -4.04061,-6.06092 0,-3.34735 1.80904,-6.06092 4.04061,-6.06092 2.23157,0 4.04061,2.71357 4.04061,6.06092 z"
       transform="matrix(1.6080509,0,0,0.95833335,-85.541945,278.87724)" />
    <path
       sodipodi:type="arc"
       style="fill:#000000"
       id="path2985-1-8"
       sodipodi:cx="125.25892"
       sodipodi:cy="116.96093"
       sodipodi:rx="4.0406103"
       sodipodi:ry="6.0609155"
       d="m 129.29953,116.96093 c 0,3.34735 -1.80904,6.06092 -4.04061,6.06092 -2.23157,0 -4.04061,-2.71357 -4.04061,-6.06092 0,-3.34735 1.80904,-6.06092 4.04061,-6.06092 2.23157,0 4.04061,2.71357 4.04061,6.06092 z"
       transform="matrix(1.6080509,0,0,0.95833335,-35.470925,278.11963)" />
    <path
       sodipodi:type="arc"
       style="fill:#000000"
       id="path2985-7-74"
       sodipodi:cx="125.25892"
       sodipodi:cy="116.96093"
       sodipodi:rx="4.0406103"
       sodipodi:ry="6.0609155"
       d="m 129.29953,116.96093 c 0,3.34735 -1.80904,6.06092 -4.04061,6.06092 -2.23157,0 -4.04061,-2.71357 -4.04061,-6.06092 0,-3.34735 1.80904,-6.06092 4.04061,-6.06092 2.23157,0 4.04061,2.71357 4.04061,6.06092 z"
       transform="matrix(1.6080509,0,0,0.95833335,13.521476,278.6247)" />
    <path
       sodipodi:type="arc"
       style="fill:#000000"
       id="path2985-4-2"
       sodipodi:cx="125.25892"
       sodipodi:cy="116.96093"
       sodipodi:rx="4.0406103"
       sodipodi:ry="6.0609155"
       d="m 129.29953,116.96093 c 0,3.34735 -1.80904,6.06092 -4.04061,6.06092 -2.23157,0 -4.04061,-2.71357 -4.04061,-6.06092 0,-3.34735 1.80904,-6.06092 4.04061,-6.06092 2.23157,0 4.04061,2.71357 4.04061,6.06092 z"
       transform="matrix(1.6080509,0,0,0.95833335,59.988493,278.6247)" />
    <path
       sodipodi:type="arc"
       style="fill:#000000"
       id="path2985-0-7"
       sodipodi:cx="125.25892"
       sodipodi:cy="116.96093"
       sodipodi:rx="4.0406103"
       sodipodi:ry="6.0609155"
       d="m 129.29953,116.96093 c 0,3.34735 -1.80904,6.06092 -4.04061,6.06092 -2.23157,0 -4.04061,-2.71357 -4.04061,-6.06092 0,-3.34735 1.80904,-6.06092 4.04061,-6.06092 2.23157,0 4.04061,2.71357 4.04061,6.06092 z"
       transform="matrix(1.6080509,0,0,0.95833335,106.45551,278.6247)" />
    <path
       sodipodi:type="arc"
       style="fill:#000000"
       id="path2985-9-79"
       sodipodi:cx="125.25892"
       sodipodi:cy="116.96093"
       sodipodi:rx="4.0406103"
       sodipodi:ry="6.0609155"
       d="m 129.29953,116.96093 c 0,3.34735 -1.80904,6.06092 -4.04061,6.06092 -2.23157,0 -4.04061,-2.71357 -4.04061,-6.06092 0,-3.34735 1.80904,-6.06092 4.04061,-6.06092 2.23157,0 4.04061,2.71357 4.04061,6.06092 z"
       transform="matrix(1.6080509,0,0,0.95833335,152.41744,279.12978)" />
    <path
       sodipodi:type="arc"
       style="fill:#000000"
       id="path2985-48-31"
       sodipodi:cx="125.25892"
       sodipodi:cy="116.96093"
       sodipodi:rx="4.0406103"
       sodipodi:ry="6.0609155"
       d="m 129.29953,116.96093 c 0,3.34735 -1.80904,6.06092 -4.04061,6.06092 -2.23157,0 -4.04061,-2.71357 -4.04061,-6.06092 0,-3.34735 1.80904,-6.06092 4.04061,-6.06092 2.23157,0 4.04061,2.71357 4.04061,6.06092 z"
       transform="matrix(1.6080509,0,0,0.95833335,197.8743,279.12978)" />
    <path
       sodipodi:type="arc"
       style="fill:#000000"
       id="path2985-8-98"
       sodipodi:cx="125.25892"
       sodipodi:cy="116.96093"
       sodipodi:rx="4.0406103"
       sodipodi:ry="6.0609155"
       d="m 129.29953,116.96093 c 0,3.34735 -1.80904,6.06092 -4.04061,6.06092 -2.23157,0 -4.04061,-2.71357 -4.04061,-6.06092 0,-3.34735 1.80904,-6.06092 4.04061,-6.06092 2.23157,0 4.04061,2.71357 4.04061,6.06092 z"
       transform="matrix(1.6080509,0,0,0.95833335,243.33117,279.12978)" />
    <path
       style="fill:none;stroke:#000000;stroke-width:1px;stroke-linecap:butt;stroke-linejoin:miter;stroke-opacity:1"
       d="m 164.65486,126.0523 0,264.65997"
       id="path3187"
       inkscape:connector-curvature="0" />
    <path
       style="fill:none;stroke:#000000;stroke-width:1px;stroke-linecap:butt;stroke-linejoin:miter;stroke-opacity:1"
       d="m 213.14219,126.0523 0,264.15489"
       id="path3189"
       inkscape:connector-curvature="0" />
    <path
       style="fill:none;stroke:#000000;stroke-width:1px;stroke-linecap:butt;stroke-linejoin:miter;stroke-opacity:1"
       d="m 261.12443,390.71227 0,-265.67012"
       id="path3191"
       inkscape:connector-curvature="0" />
    <path
       style="fill:none;stroke:#000000;stroke-width:1px;stroke-linecap:butt;stroke-linejoin:miter;stroke-opacity:1"
       d="m 306.5813,125.54722 0,265.16505"
       id="path3193"
       inkscape:connector-curvature="0" />
    <path
       style="fill:none;stroke:#000000;stroke-width:1px;stroke-linecap:butt;stroke-linejoin:miter;stroke-opacity:1"
       d="m 354.05847,391.21734 0,-265.16504"
       id="path3195"
       inkscape:connector-curvature="0" />
    <path
       style="fill:none;stroke:#000000;stroke-width:1px;stroke-linecap:butt;stroke-linejoin:miter;stroke-opacity:1"
       d="m 398.50518,125.54722 0,265.16505"
       id="path3197"
       inkscape:connector-curvature="0" />
    <path
       style="fill:none;stroke:#000000;stroke-width:1px;stroke-linecap:butt;stroke-linejoin:miter;stroke-opacity:1"
       d="m 115.15739,175.0447 329.30973,0"
       id="path3199"
       inkscape:connector-curvature="0" />
    <path
       style="fill:none;stroke:#000000;stroke-width:1px;stroke-linecap:butt;stroke-linejoin:miter;stroke-opacity:1"
       d="m 114.14724,228.58278 328.29958,0"
       id="path3201"
       inkscape:connector-curvature="0" />
    <path
       style="fill:none;stroke:#000000;stroke-width:1px;stroke-linecap:butt;stroke-linejoin:miter;stroke-opacity:1"
       d="m 444.9722,283.6361 -330.82496,0"
       id="path3203"
       inkscape:connector-curvature="0" />
    <path
       style="fill:none;stroke:#000000;stroke-width:1px;stroke-linecap:butt;stroke-linejoin:miter;stroke-opacity:1"
       d="m 114.14724,338.68941 330.31988,0"
       id="path3205"
       inkscape:connector-curvature="0" />
    <text
       xml:space="preserve"
       style="font-size:40px;font-style:normal;font-variant:normal;font-weight:bold;font-stretch:normal;text-align:start;line-height:125%;letter-spacing:0px;word-spacing:0px;writing-mode:lr-tb;text-anchor:start;fill:#000000;fill-opacity:1;stroke:none;font-family:Sans;-inkscape-font-specification:Sans Bold"
       x="97.766518"
       y="118.6881"
       id="text3041"
       sodipodi:linespacing="125%"><tspan
         sodipodi:role="line"
         id="tspan3043"
         x="97.766518"
         y="118.6881"
         style="font-size:14px;font-weight:normal;-inkscape-font-specification:Sans">0</tspan></text>
    <text
       xml:space="preserve"
       style="font-size:40px;font-style:normal;font-variant:normal;font-weight:bold;font-stretch:normal;text-align:start;line-height:125%;letter-spacing:0px;word-spacing:0px;writing-mode:lr-tb;text-anchor:start;fill:#000000;fill-opacity:1;stroke:none;font-family:Sans;-inkscape-font-specification:Sans Bold"
       x="445.99664"
       y="116.05775"
       id="text3041-1"
       sodipodi:linespacing="125%"><tspan
         sodipodi:role="line"
         id="tspan3043-7"
         x="445.99664"
         y="116.05775"
         style="font-size:14px;font-weight:normal;-inkscape-font-specification:Sans">n</tspan></text>
    <text
       xml:space="preserve"
       style="font-size:40px;font-style:normal;font-variant:normal;font-weight:bold;font-stretch:normal;text-align:start;line-height:125%;letter-spacing:0px;word-spacing:0px;writing-mode:lr-tb;text-anchor:start;fill:#000000;fill-opacity:1;stroke:none;font-family:Sans;-inkscape-font-specification:Sans Bold"
       x="-25.253813"
       y="288.39856"
       id="text3066"
       sodipodi:linespacing="125%"
       transform="translate(107.86804,119.23377)"><tspan
         sodipodi:role="line"
         id="tspan3068"
         x="-25.253813"
         y="288.39856"></tspan></text>
    <text
       xml:space="preserve"
       style="font-size:40px;font-style:normal;font-variant:normal;font-weight:bold;font-stretch:normal;text-align:start;line-height:125%;letter-spacing:0px;word-spacing:0px;writing-mode:lr-tb;text-anchor:start;fill:#000000;fill-opacity:1;stroke:none;font-family:Sans;-inkscape-font-specification:Sans Bold"
       x="95.368576"
       y="406.83917"
       id="text3041-1-4"
       sodipodi:linespacing="125%"><tspan
         sodipodi:role="line"
         id="tspan3043-7-0"
         x="95.368576"
         y="406.83917"
         style="font-size:14px;font-weight:normal;-inkscape-font-specification:Sans">m</tspan></text>
  </g>
</svg>
