<?xml version="1.0" encoding="UTF-8" standalone="no"?>
<!-- Created with Inkscape (http://www.inkscape.org/) -->

<svg
   xmlns:dc="http://purl.org/dc/elements/1.1/"
   xmlns:cc="http://creativecommons.org/ns#"
   xmlns:rdf="http://www.w3.org/1999/02/22-rdf-syntax-ns#"
   xmlns:svg="http://www.w3.org/2000/svg"
   xmlns="http://www.w3.org/2000/svg"
   xmlns:sodipodi="http://sodipodi.sourceforge.net/DTD/sodipodi-0.dtd"
   xmlns:inkscape="http://www.inkscape.org/namespaces/inkscape"
   width="154.92883"
   height="55.01569"
   id="svg3065"
   version="1.1"
   inkscape:version="0.48.2 r9819"
   sodipodi:docname="neuron_insertion_faces.pdf">
  <defs
     id="defs3067" />
  <sodipodi:namedview
     id="base"
     pagecolor="#ffffff"
     bordercolor="#666666"
     borderopacity="1.0"
     inkscape:pageopacity="0.0"
     inkscape:pageshadow="2"
     inkscape:zoom="1.979899"
     inkscape:cx="143.38023"
     inkscape:cy="-8.5766535"
     inkscape:document-units="px"
     inkscape:current-layer="layer1"
     showgrid="false"
     fit-margin-top="0"
     fit-margin-left="0"
     fit-margin-right="0"
     fit-margin-bottom="0"
     inkscape:window-width="1920"
     inkscape:window-height="1005"
     inkscape:window-x="-9"
     inkscape:window-y="-9"
     inkscape:window-maximized="1" />
  <metadata
     id="metadata3070">
    <rdf:RDF>
      <cc:Work
         rdf:about="">
        <dc:format>image/svg+xml</dc:format>
        <dc:type
           rdf:resource="http://purl.org/dc/dcmitype/StillImage" />
        <dc:title></dc:title>
      </cc:Work>
    </rdf:RDF>
  </metadata>
  <g
     inkscape:label="Layer 1"
     inkscape:groupmode="layer"
     id="layer1"
     transform="translate(-8.3385725,-7.5044533)">
    <text
       xml:space="preserve"
       x="7.98701"
       y="34.129173"
       id="text3797-4-1-3"
       sodipodi:linespacing="125%"
       style="line-height:125%"><tspan
         sodipodi:role="line"
         id="tspan3799-5-7-4"
         x="7.98701"
         y="34.129173"
         style="font-size:10px;font-style:normal;font-variant:normal;font-weight:normal;font-stretch:normal;text-align:start;line-height:125%;writing-mode:lr-tb;text-anchor:start;font-family:Sans;-inkscape-font-specification:Sans">q</tspan></text>
    <path
       style="fill:none;stroke:#000000;stroke-width:1px;stroke-linecap:butt;stroke-linejoin:miter;stroke-opacity:1"
       d="M 18.94036,35.643645 43.689097,10.137293 64.397225,34.380954 40.911178,58.87715 z"
       id="path3892"
       inkscape:connector-curvature="0" />
    <path
       style="fill:none;stroke:#000000;stroke-width:1px;stroke-linecap:butt;stroke-linejoin:miter;stroke-opacity:1"
       d="M 19.697974,35.643645 63.892148,33.875878"
       id="path3894"
       inkscape:connector-curvature="0" />
    <path
       sodipodi:type="arc"
       style="fill:#47454a;fill-opacity:1;fill-rule:nonzero;stroke:#000000;stroke-width:1.5;stroke-linecap:round;stroke-miterlimit:4;stroke-opacity:1;stroke-dasharray:none;stroke-dashoffset:0"
       id="path3759-7-0-9-1"
       sodipodi:cx="140.41121"
       sodipodi:cy="54.836544"
       sodipodi:rx="7.0710678"
       sodipodi:ry="7.5761442"
       d="m 147.48228,54.836544 c 0,4.184189 -3.16583,7.576144 -7.07107,7.576144 -3.90524,0 -7.07107,-3.391955 -7.07107,-7.576144 0,-4.184189 3.16583,-7.576144 7.07107,-7.576144 3.90524,0 7.07107,3.391955 7.07107,7.576144 z"
       transform="matrix(0.34654429,0,0,0.34654429,-5.7272197,-8.6134602)" />
    <path
       sodipodi:type="arc"
       style="fill:#47454a;fill-opacity:1;fill-rule:nonzero;stroke:#000000;stroke-width:1.5;stroke-linecap:round;stroke-miterlimit:4;stroke-opacity:1;stroke-dasharray:none;stroke-dashoffset:0"
       id="path3759-7-0-9-7"
       sodipodi:cx="140.41121"
       sodipodi:cy="54.836544"
       sodipodi:rx="7.0710678"
       sodipodi:ry="7.5761442"
       d="m 147.48228,54.836544 c 0,4.184189 -3.16583,7.576144 -7.07107,7.576144 -3.90524,0 -7.07107,-3.391955 -7.07107,-7.576144 0,-4.184189 3.16583,-7.576144 7.07107,-7.576144 3.90524,0 7.07107,3.391955 7.07107,7.576144 z"
       transform="matrix(0.34654429,0,0,0.34654429,15.738522,14.36751)" />
    <path
       sodipodi:type="arc"
       style="fill:#47454a;fill-opacity:1;fill-rule:nonzero;stroke:#000000;stroke-width:1.5;stroke-linecap:round;stroke-miterlimit:4;stroke-opacity:1;stroke-dasharray:none;stroke-dashoffset:0"
       id="path3759-7-0-9-4"
       sodipodi:cx="140.41121"
       sodipodi:cy="54.836544"
       sodipodi:rx="7.0710678"
       sodipodi:ry="7.5761442"
       d="m 147.48228,54.836544 c 0,4.184189 -3.16583,7.576144 -7.07107,7.576144 -3.90524,0 -7.07107,-3.391955 -7.07107,-7.576144 0,-4.184189 3.16583,-7.576144 7.07107,-7.576144 3.90524,0 7.07107,3.391955 7.07107,7.576144 z"
       transform="matrix(0.34654429,0,0,0.34654429,-29.718343,16.135277)" />
    <path
       sodipodi:type="arc"
       style="fill:#47454a;fill-opacity:1;fill-rule:nonzero;stroke:#000000;stroke-width:1.5;stroke-linecap:round;stroke-miterlimit:4;stroke-opacity:1;stroke-dasharray:none;stroke-dashoffset:0"
       id="path3759-7-0-9-0"
       sodipodi:cx="140.41121"
       sodipodi:cy="54.836544"
       sodipodi:rx="7.0710678"
       sodipodi:ry="7.5761442"
       d="m 147.48228,54.836544 c 0,4.184189 -3.16583,7.576144 -7.07107,7.576144 -3.90524,0 -7.07107,-3.391955 -7.07107,-7.576144 0,-4.184189 3.16583,-7.576144 7.07107,-7.576144 3.90524,0 7.07107,3.391955 7.07107,7.576144 z"
       transform="matrix(0.34654429,0,0,0.34654429,-8.2526007,40.1264)" />
    <text
       xml:space="preserve"
       x="69.108719"
       y="34.349907"
       id="text3797-4-1-3-4"
       sodipodi:linespacing="125%"
       style="line-height:125%"><tspan
         sodipodi:role="line"
         id="tspan3799-5-7-4-8"
         x="69.108719"
         y="34.349907"
         style="font-size:10px;font-style:normal;font-variant:normal;font-weight:normal;font-stretch:normal;text-align:start;line-height:125%;writing-mode:lr-tb;text-anchor:start;font-family:Sans;-inkscape-font-specification:Sans">f</tspan></text>
    <path
       sodipodi:type="arc"
       style="fill:#4745d7;fill-opacity:1;fill-rule:nonzero;stroke:#1919d8;stroke-width:1.50052965;stroke-linecap:round;stroke-miterlimit:4;stroke-opacity:1;stroke-dasharray:0.37513243, 0.37513243;stroke-dashoffset:0"
       id="path3759-7-0-9-2"
       sodipodi:cx="140.41121"
       sodipodi:cy="54.836544"
       sodipodi:rx="7.0710678"
       sodipodi:ry="7.5761442"
       d="m 147.48228,54.836544 c 0,4.184189 -3.16583,7.576144 -7.07107,7.576144 -3.90524,0 -7.07107,-3.391955 -7.07107,-7.576144 0,-4.184189 3.16583,-7.576144 7.07107,-7.576144 3.90524,0 7.07107,3.391955 7.07107,7.576144 z"
       transform="matrix(0.34654429,0,0,0.34654429,-6.7373727,15.377663)" />
    <text
       xml:space="preserve"
       x="42.592209"
       y="30.309288"
       id="text3797-4-1-3-45"
       sodipodi:linespacing="125%"
       style="line-height:125%"><tspan
         sodipodi:role="line"
         id="tspan3799-5-7-4-5"
         x="42.592209"
         y="30.309288"
         style="font-size:10px;font-style:normal;font-variant:normal;font-weight:normal;font-stretch:normal;text-align:start;line-height:125%;writing-mode:lr-tb;text-anchor:start;font-family:Sans;-inkscape-font-specification:Sans">r</tspan></text>
    <text
       xml:space="preserve"
       x="99.020699"
       y="35.073254"
       id="text3797-4-1-3-7"
       sodipodi:linespacing="125%"
       style="line-height:125%"><tspan
         sodipodi:role="line"
         id="tspan3799-5-7-4-1"
         x="99.020699"
         y="35.073254"
         style="font-size:10px;font-style:normal;font-variant:normal;font-weight:normal;font-stretch:normal;text-align:start;line-height:125%;writing-mode:lr-tb;text-anchor:start;font-family:Sans;-inkscape-font-specification:Sans">q</tspan></text>
    <path
       style="fill:none;stroke:#000000;stroke-width:1px;stroke-linecap:butt;stroke-linejoin:miter;stroke-opacity:1"
       d="m 109.97405,36.587727 24.74873,-25.506353 20.70813,24.243662 -23.48605,24.496196 z"
       id="path3892-2"
       inkscape:connector-curvature="0" />
    <path
       style="fill:none;stroke:#000000;stroke-width:1px;stroke-linecap:butt;stroke-linejoin:miter;stroke-opacity:1"
       d="M 110.73166,36.587727 154.92583,34.81996"
       id="path3894-7"
       inkscape:connector-curvature="0" />
    <path
       sodipodi:type="arc"
       style="fill:#47454a;fill-opacity:1;fill-rule:nonzero;stroke:#000000;stroke-width:1.5;stroke-linecap:round;stroke-miterlimit:4;stroke-opacity:1;stroke-dasharray:none;stroke-dashoffset:0"
       id="path3759-7-0-9-7-1"
       sodipodi:cx="140.41121"
       sodipodi:cy="54.836544"
       sodipodi:rx="7.0710678"
       sodipodi:ry="7.5761442"
       d="m 147.48228,54.836544 c 0,4.184189 -3.16583,7.576144 -7.07107,7.576144 -3.90524,0 -7.07107,-3.391955 -7.07107,-7.576144 0,-4.184189 3.16583,-7.576144 7.07107,-7.576144 3.90524,0 7.07107,3.391955 7.07107,7.576144 z"
       transform="matrix(0.34654429,0,0,0.34654429,106.77221,15.311591)" />
    <path
       sodipodi:type="arc"
       style="fill:#47454a;fill-opacity:1;fill-rule:nonzero;stroke:#000000;stroke-width:1.5;stroke-linecap:round;stroke-miterlimit:4;stroke-opacity:1;stroke-dasharray:none;stroke-dashoffset:0"
       id="path3759-7-0-9-4-4"
       sodipodi:cx="140.41121"
       sodipodi:cy="54.836544"
       sodipodi:rx="7.0710678"
       sodipodi:ry="7.5761442"
       d="m 147.48228,54.836544 c 0,4.184189 -3.16583,7.576144 -7.07107,7.576144 -3.90524,0 -7.07107,-3.391955 -7.07107,-7.576144 0,-4.184189 3.16583,-7.576144 7.07107,-7.576144 3.90524,0 7.07107,3.391955 7.07107,7.576144 z"
       transform="matrix(0.34654429,0,0,0.34654429,61.315342,17.079358)" />
    <text
       xml:space="preserve"
       x="160.14241"
       y="35.293987"
       id="text3797-4-1-3-4-3"
       sodipodi:linespacing="125%"
       style="line-height:125%"><tspan
         sodipodi:role="line"
         id="tspan3799-5-7-4-8-2"
         x="160.14241"
         y="35.293987"
         style="font-size:10px;font-style:normal;font-variant:normal;font-weight:normal;font-stretch:normal;text-align:start;line-height:125%;writing-mode:lr-tb;text-anchor:start;font-family:Sans;-inkscape-font-specification:Sans">f</tspan></text>
    <text
       xml:space="preserve"
       x="137.6259"
       y="31.253368"
       id="text3797-4-1-3-45-1"
       sodipodi:linespacing="125%"
       style="line-height:125%"><tspan
         sodipodi:role="line"
         id="tspan3799-5-7-4-5-6"
         x="137.6259"
         y="31.253368"
         style="font-size:10px;font-style:normal;font-variant:normal;font-weight:normal;font-stretch:normal;text-align:start;line-height:125%;writing-mode:lr-tb;text-anchor:start;font-family:Sans;-inkscape-font-specification:Sans">r</tspan></text>
    <path
       style="fill:none;stroke:#000000;stroke-width:1;stroke-linecap:butt;stroke-linejoin:miter;stroke-miterlimit:4;stroke-opacity:1;stroke-dasharray:2, 1;stroke-dashoffset:0"
       d="M 132.32998,60.139844 132.07745,36.148721"
       id="path4576"
       inkscape:connector-curvature="0" />
    <path
       style="fill:none;stroke:#000000;stroke-width:1;stroke-linecap:butt;stroke-linejoin:miter;stroke-miterlimit:4;stroke-opacity:1;stroke-dasharray:2, 1;stroke-dashoffset:0"
       d="m 132.58252,34.128416 1.26269,-22.728432"
       id="path4578"
       inkscape:connector-curvature="0" />
    <path
       sodipodi:type="arc"
       style="fill:#4745d7;fill-opacity:1;fill-rule:nonzero;stroke:#1919d8;stroke-width:1.50052965;stroke-linecap:round;stroke-miterlimit:4;stroke-opacity:1;stroke-dasharray:0.37513243, 0.37513243;stroke-dashoffset:0"
       id="path3759-7-0-9-2-8"
       sodipodi:cx="140.41121"
       sodipodi:cy="54.836544"
       sodipodi:rx="7.0710678"
       sodipodi:ry="7.5761442"
       d="m 147.48228,54.836544 c 0,4.184189 -3.16583,7.576144 -7.07107,7.576144 -3.90524,0 -7.07107,-3.391955 -7.07107,-7.576144 0,-4.184189 3.16583,-7.576144 7.07107,-7.576144 3.90524,0 7.07107,3.391955 7.07107,7.576144 z"
       transform="matrix(0.34654429,0,0,0.34654429,83.671281,16.387815)" />
    <path
       sodipodi:type="arc"
       style="fill:#47454a;fill-opacity:1;fill-rule:nonzero;stroke:#000000;stroke-width:1.5;stroke-linecap:round;stroke-miterlimit:4;stroke-opacity:1;stroke-dasharray:none;stroke-dashoffset:0"
       id="path3759-7-0-9-1-6-5"
       sodipodi:cx="140.41121"
       sodipodi:cy="54.836544"
       sodipodi:rx="7.0710678"
       sodipodi:ry="7.5761442"
       d="m 147.48228,54.836544 c 0,4.184189 -3.16583,7.576144 -7.07107,7.576144 -3.90524,0 -7.07107,-3.391955 -7.07107,-7.576144 0,-4.184189 3.16583,-7.576144 7.07107,-7.576144 3.90524,0 7.07107,3.391955 7.07107,7.576144 z"
       transform="matrix(0.34654429,0,0,0.34654429,85.439046,-7.8558458)" />
    <path
       sodipodi:type="arc"
       style="fill:#47454a;fill-opacity:1;fill-rule:nonzero;stroke:#000000;stroke-width:1.5;stroke-linecap:round;stroke-miterlimit:4;stroke-opacity:1;stroke-dasharray:none;stroke-dashoffset:0"
       id="path3759-7-0-9-1-6-5-7"
       sodipodi:cx="140.41121"
       sodipodi:cy="54.836544"
       sodipodi:rx="7.0710678"
       sodipodi:ry="7.5761442"
       d="m 147.48228,54.836544 c 0,4.184189 -3.16583,7.576144 -7.07107,7.576144 -3.90524,0 -7.07107,-3.391955 -7.07107,-7.576144 0,-4.184189 3.16583,-7.576144 7.07107,-7.576144 3.90524,0 7.07107,3.391955 7.07107,7.576144 z"
       transform="matrix(0.34654429,0,0,0.34654429,82.913666,40.631476)" />
  </g>
</svg>
